R Utility Tool to Extract, Process and Structure Philippines-specific Datasets for Use in CoMo Consortium Model • comoparams
…
daily - data on health facilities’ daily COVID-19 specific equipment status.

The syntax for this set of pull functions has a common prefix of ph_get_ followed by the short name of the specific dataset listed above.

All four functions in this set has one argument - date - which is the date (in  format) up to which exracted data reports to. This argument defaults to the current date as given by Sys.Date() and will only accept dates starting from 14 April 2020 when COVID-19 DataDrop was launched.

It should be noted that COVID-19 DataDrop is updated everyday at 16:00 Philippine Standard Time (PHT). If these functions are used without specifying a date and at a time that is before 16:00 PHT, an error message will indicate that the dataset for the current day is not yet available and will suggest to specify a date at least one day earlier.

The output of these functions is a tibble.

To pull the data on cases up to the current date, we use the function ph_get_cases() as follows:

ph_get_cases()

#> # A tibble: 9,684 x 18
#>    CaseCode   Age AgeGroup Sex   DateRepConf DateDied DateRecover RemovalType
#>    <chr>    <int> <chr>    <chr> <chr>       <chr>    <chr>       <chr>      
#>  1 C100119     31 30 to 34 Male  2020-04-12  ""       ""          ""         
#>  2 C100264     58 55 to 59 Male  2020-03-29  ""       ""          ""         
#>  3 C100648     34 30 to 34 Fema… 2020-04-16  ""       ""          ""         
#>  4 C100660     43 40 to 44 Fema… 2020-04-02  ""       "2020-04-2… ""         
#>  5 C100776     43 40 to 44 Male  2020-04-01  ""       ""          ""         
#>  6 C101015     79 75 to 79 Male  2020-04-03  ""       ""          ""         
#>  7 C101097     33 30 to 34 Male  2020-03-27  ""       ""          ""         
#>  8 C101232     31 30 to 34 Male  2020-03-21  ""       "2020-03-2… "Recovered"
#>  9 C101376     30 30 to 34 Male  2020-04-11  ""       ""          ""         
#> 10 C101483     40 40 to 44 Fema… 2020-04-14  ""       ""          ""         
#> # … with 9,674 more rows, and 10 more variables: DateRepRem <chr>,
#> #   Admitted <chr>, RegionRes <chr>, ProvRes <chr>, CityMunRes <chr>,
#> #   RegionPSGC <chr>, ProvPSGC <chr>, CityMuniPSGC <chr>, HealthStatus <chr>,
#> #   Quarantined <chr>

To pull the data on cases for up to 1 May 2020, we use the function ph_get_cases() as follows:

ph_get_cases(date = "2020-05-01")
#> # A tibble: 8,772 x 18
#>    CaseCode   Age AgeGroup Sex   DateRepConf DateRecover DateDied RemovalType
#>    <chr>    <int> <chr>    <chr> <chr>       <chr>       <chr>    <chr>      
#>  1 C100119     30 30 to 34 Male  12-Apr-20   ""          ""       ""         
#>  2 C100264     57 55 to 59 Male  29-Mar-20   ""          ""       ""         
#>  3 C100648     33 30 to 34 Fema… 16-Apr-20   ""          ""       ""         
#>  4 C100660     42 40 to 44 Fema… 02-Apr-20   ""          ""       ""         
#>  5 C100776     42 40 to 44 Male  01-Apr-20   ""          ""       ""         
#>  6 C101015     79 75 to 79 Male  03-Apr-20   ""          ""       ""         
#>  7 C101097     33 30 to 34 Male  27-Mar-20   ""          ""       ""         
#>  8 C101232     30 30 to 34 Male  21-Mar-20   "25-Mar-20" ""       "Recovered"
#>  9 C101376     29 25 to 29 Male  11-Apr-20   ""          ""       ""         
#> 10 C101483     40 40 to 44 Fema… 14-Apr-20   ""          ""       ""         
#> # … with 8,762 more rows, and 10 more variables: DateRepRem <chr>,
#> #   Admitted <chr>, RegionRes <chr>, ProvRes <chr>, CityMunRes <chr>,
#> #   RegionPSGC <chr>, ProvPSGC <chr>, CityMuniPSGC <chr>, HealthStatus <chr>,
#> #   Quarantined <chr>

The pull data set of functions in comoparams are helper functions that are called within the calculate set of functions to extract data needed to make specfic calculations needed for the actual CoMo Consortium Model parameters.

Pulling data from the Philippines Statistics Authority (PSA) 2015 Population Census (2015 POPCEN)

The last Philippines census was in 2015. A 2020 census was planned but due to the COVID-19 pandemic, this is most likely goint to be put on hold. The Philippines Statistics Authority (PSA) provides an XLSX file for its updated 2020 population projections based on the 2015 POPCEN. This file is downloadable from the PSA website via this link.

A helper function with the same ph_get_ prefix is provided by the comoparams package - ph_get_psa2015_pop() - which downloads the XLSX file from the PSA website, reads the file and then extracts and re-structures the population data in the file to long format (tidy format).

The function can be called as follows:

linkToFile <- "https://psa.gov.ph/sites/default/files/attachments/hsd/pressrelease/Updated%20Population%20Projections%20based%20on%202015%20POPCEN_0.xlsx"

ph_get_psa2015_pop(file = linkToFile)
#> # A tibble: 87,567 x 6
#>    area         year age_category    total    male  female
#>    <chr>       <dbl> <chr>           <dbl>   <dbl>   <dbl>
#>  1 Philippines  2015 0-4          10803297 5582405 5220892
#>  2 Philippines  2015 5-9          10827294 5588769 5238525
#>  3 Philippines  2015 10-14        10478834 5397638 5081196
#>  4 Philippines  2015 15-19        10176450 5194725 4981725
#>  5 Philippines  2015 20-24         9453737 4788812 4664925
#>  6 Philippines  2015 25-29         8348285 4246632 4101653
#>  7 Philippines  2015 30-34         7331213 3750503 3580710
#>  8 Philippines  2015 35-39         6732896 3442349 3290547
#>  9 Philippines  2015 40-44         5840861 2991059 2849802
#> 10 Philippines  2015 45-49         5276700 2676602 2600098
#> # … with 87,557 more rows
…
The United Nations World Population Prospects 2019 provides population projections for 152 countries with a 5-year age grouping structure required by the CoMo Consortium Model which are available either as XLSX or as CSV files. The comoparams package provides three functions to extract these datasets. These functions follow the same prefix syntax of ph_get_ as the other pull data functions followed by a descriptor of the data that is being pulled. The descriptors used are:

wpp2019_pop - Five-year age group structured population by male and female

wpp2019_births - Number of births by age of mother in 5-year age groups

wpp2019_deaths - Number of deaths by 5-year age groups and by male and female

To pull the five-year age group structured population, we make a call for the following:

linkToFile <- "https://population.un.org/wpp/Download/Files/1_Indicators%20(Standard)/CSV_FILES/WPP2019_PopulationByAgeSex_Medium.csv"

ph_get_wpp2019_pop(file = linkToFile, location = "Philippines")
#> # A tibble: 21 x 6
#>    area         year age_category    total     male  female
#>    <chr>       <int> <chr>           <dbl>    <dbl>   <dbl>
#>  1 Philippines  2020 0-4 y.o.     10616342 5450633  5165709
#>  2 Philippines  2020 5-9 y.o.     11397952 5846072  5551880
#>  3 Philippines  2020 10-14 y.o.   10906801 5578251  5328550
#>  4 Philippines  2020 15-19 y.o.   10462894 5407659  5055235
#>  5 Philippines  2020 20-24 y.o.   10104334 5191755  4912579
#>  6 Philippines  2020 25-29 y.o.    9479780 4807611  4672169
#>  7 Philippines  2020 30-34 y.o.    8247197 4166778. 4080419
#>  8 Philippines  2020 35-39 y.o.    7254730 3644549  3610181
#>  9 Philippines  2020 40-44 y.o.    6551963 3297341  3254622
#> 10 Philippines  2020 45-49 y.o.    5759264 2883722  2875542
#> # … with 11 more rows
…
To pull the number of deaths by 5-year age groups and by male and female, we make a call for the following:

linkToFile <- "https://population.un.org/wpp/Download/Files/1_Indicators%20(Standard)/EXCEL_FILES/3_Mortality/WPP2019_MORT_F04_1_DEATHS_BY_AGE_BOTH_SEXES.xlsx"

ph_get_wpp2019_deaths(file = linkToFile, period = 2019)
#> # A tibble: 21 x 4
#>    area        year      age_category  death
#>    <chr>       <chr>     <chr>         <dbl>
#>  1 Philippines 2015-2020 0-4 y.o.     306206
#>  2 Philippines 2015-2020 5-9 y.o.      34260
#>  3 Philippines 2015-2020 10-14 y.o.    28539
#>  4 Philippines 2015-2020 15-19 y.o.    59008
#>  5 Philippines 2015-2020 20-24 y.o.    78740
#>  6 Philippines 2015-2020 25-29 y.o.    77908
#>  7 Philippines 2015-2020 30-34 y.o.    81415
#>  8 Philippines 2015-2020 35-39 y.o.    96548
#>  9 Philippines 2015-2020 40-44 y.o.   121537
#> 10 Philippines 2015-2020 45-49 y.o.   160660
#> # … with 11 more rows
…
