The Philippines 2015 Census of Population (POPCEN 2015) — population_psa_2015 • comoparams
…
  totalTotal population

  maleMale population

  femaleFemale population

    Source

    Philippines Statistics Authority

    Examples

population_psa_2015
#> # A tibble: 87,567 x 6
#>    area         year age_category    total    male  female
#>    <chr>       <dbl> <chr>           <dbl>   <dbl>   <dbl>
#>  1 Philippines  2015 0-4          10803297 5582405 5220892
#>  2 Philippines  2015 5-9          10827294 5588769 5238525
#>  3 Philippines  2015 10-14        10478834 5397638 5081196
#>  4 Philippines  2015 15-19        10176450 5194725 4981725
#>  5 Philippines  2015 20-24         9453737 4788812 4664925
#>  6 Philippines  2015 25-29         8348285 4246632 4101653
#>  7 Philippines  2015 30-34         7331213 3750503 3580710
#>  8 Philippines  2015 35-39         6732896 3442349 3290547
#>  9 Philippines  2015 40-44         5840861 2991059 2849802
#> 10 Philippines  2015 45-49         5276700 2676602 2600098
#> # … with 87,557 more rows
…
